[gd_scene load_steps=3 format=2]

[ext_resource path="res://sayhello.gd" type="Script" id=1]
[ext_resource path="res://Label.gd" type="Script" id=2]

[node name="Panel" type="Panel"]
margin_left = 285.0
margin_top = 192.0
margin_right = 942.0
margin_bottom = 460.0
script = ExtResource( 1 )

[node name="Button" type="Button" parent="."]
margin_left = 195.0
margin_top = 177.0
margin_right = 381.0
margin_bottom = 197.0
text = "press me"

[node name="Label" type="Label" parent="."]
margin_left = 178.0
margin_top = 53.0
margin_right = 385.0
margin_bottom = 136.0
text = "this is a label"
script = ExtResource( 2 )
[connection signal="pressed" from="Button" to="." method="_on_Button_pressed"]
